<svg xmlns="http://www.w3.org/2000/svg" width="43px" height="76px">
    <path d="M41.472,41.712 L9.419,73.947 C7.380,75.997 4.074,75.997 2.036,73.947 C-0.002,71.897 -0.002,68.573 2.036,66.523 L30.398,38.001 L2.037,9.480 C-0.001,7.430 -0.001,4.106 2.037,2.056 C4.075,0.006 7.381,0.006 9.420,2.056 L41.473,34.290 C42.492,35.315 43.001,36.658 43.001,38.001 C43.001,39.345 42.490,40.688 41.472,41.712 Z"/>
</svg>
